{
    "code": 0,
    "message": "ok",
    "data": {
      "total": 23,
      "per_page": 10,
      "current_page": 1,
      "last_page": 3,
      "next_page_url": null,
      "prev_page_url": null,
      "from": 1,
      "to": 1,
      "data": [
        {
          "orderNum": "132456789465",
          "time": "0000-00-00 00:00:00",
          "buyerShopName": "小陈",
          "buyerPhone": "15694052728",
          "buyerAddress": "四川",
          "goodsNum": 5,
          "id": 1,
          "goods_info": [
            {
              "transport_id": 1,
              "id": 1,
              "title": "测试一号商品",
              "num": 1
            },
            {
              "transport_id": 1,
              "id": 1,
              "title": "测试2号商品",
              "num": 1
            },
            {
              "transport_id": 2,
              "id": 1,
              "title": "测试3号商品",
              "num": 2
            },
            {
              "transport_id": 4,
              "id": 4,
              "title": "测试4号商品",
              "num": 4
            }
          ],
          "money": "1.00",
          "state": 1
        },
        {
          "orderNum": "132456789465",
          "time": "0000-00-00 00:00:00",
          "buyerShopName": "小陈",
          "buyerPhone": "15694052728",
          "buyerAddress": "四川",
          "goodsNum": 5,
          "id": 1,
          "goods_info": [
            {
              "transport_id": 1,
              "id": 1,
              "title": "测试一号商品",
              "num": 1
            },
            {
              "transport_id": 1,
              "id": 1,
              "title": "测试2号商品",
              "num": 1
            },
            {
              "transport_id": 2,
              "id": 1,
              "title": "测试3号商品",
              "num": 2
            },
            {
              "transport_id": 4,
              "id": 4,
              "title": "测试4号商品",
              "num": 4
            }
          ],
          "money": "1.00",
          "state": 1
        },
        {
          "orderNum": "132456789465",
          "time": "0000-00-00 00:00:00",
          "buyerShopName": "小陈",
          "buyerPhone": "15694052728",
          "buyerAddress": "四川",
          "goodsNum": 5,
          "id": 1,
          "goods_info": [
            {
              "transport_id": 1,
              "id": 1,
              "title": "测试一号商品",
              "num": 1
            },
            {
              "transport_id": 1,
              "id": 1,
              "title": "测试2号商品",
              "num": 1
            },
            {
              "transport_id": 2,
              "id": 1,
              "title": "测试3号商品",
              "num": 2
            },
            {
              "transport_id": 4,
              "id": 4,
              "title": "测试4号商品",
              "num": 4
            }
          ],
          "money": "1.00",
          "state": 1
        },        {
          "orderNum": "132456789465",
          "time": "0000-00-00 00:00:00",
          "buyerShopName": "小陈",
          "buyerPhone": "15694052728",
          "buyerAddress": "四川",
          "goodsNum": 5,
          "id": 1,
          "goods_info": [
            {
              "transport_id": 1,
              "id": 1,
              "title": "测试一号商品",
              "num": 1
            },
            {
              "transport_id": 1,
              "id": 1,
              "title": "测试2号商品",
              "num": 1
            },
            {
              "transport_id": 2,
              "id": 1,
              "title": "测试3号商品",
              "num": 2
            },
            {
              "transport_id": 4,
              "id": 4,
              "title": "测试4号商品",
              "num": 4
            }
          ],
          "money": "1.00",
          "state": 1
        },        {
          "orderNum": "132456789465",
          "time": "0000-00-00 00:00:00",
          "buyerShopName": "小陈",
          "buyerPhone": "15694052728",
          "buyerAddress": "四川",
          "goodsNum": 5,
          "id": 1,
          "goods_info": [
            {
              "transport_id": 1,
              "id": 1,
              "title": "测试一号商品",
              "num": 1
            },
            {
              "transport_id": 1,
              "id": 1,
              "title": "测试2号商品",
              "num": 1
            },
            {
              "transport_id": 2,
              "id": 1,
              "title": "测试3号商品",
              "num": 2
            },
            {
              "transport_id": 4,
              "id": 4,
              "title": "测试4号商品",
              "num": 4
            }
          ],
          "money": "1.00",
          "state": 1
        },        {
          "orderNum": "132456789465",
          "time": "0000-00-00 00:00:00",
          "buyerShopName": "小陈",
          "buyerPhone": "15694052728",
          "buyerAddress": "四川",
          "goodsNum": 5,
          "id": 1,
          "goods_info": [
            {
              "transport_id": 1,
              "id": 1,
              "title": "测试一号商品",
              "num": 1
            },
            {
              "transport_id": 1,
              "id": 1,
              "title": "测试2号商品",
              "num": 1
            },
            {
              "transport_id": 2,
              "id": 1,
              "title": "测试3号商品",
              "num": 2
            },
            {
              "transport_id": 4,
              "id": 4,
              "title": "测试4号商品",
              "num": 4
            }
          ],
          "money": "1.00",
          "state": 1
        },        {
          "orderNum": "132456789465",
          "time": "0000-00-00 00:00:00",
          "buyerShopName": "小陈",
          "buyerPhone": "15694052728",
          "buyerAddress": "四川",
          "goodsNum": 5,
          "id": 1,
          "goods_info": [
            {
              "transport_id": 1,
              "id": 1,
              "title": "测试一号商品",
              "num": 1
            },
            {
              "transport_id": 1,
              "id": 1,
              "title": "测试2号商品",
              "num": 1
            },
            {
              "transport_id": 2,
              "id": 1,
              "title": "测试3号商品",
              "num": 2
            },
            {
              "transport_id": 4,
              "id": 4,
              "title": "测试4号商品",
              "num": 4
            }
          ],
          "money": "1.00",
          "state": 1
        },        {
          "orderNum": "132456789465",
          "time": "0000-00-00 00:00:00",
          "buyerShopName": "小陈",
          "buyerPhone": "15694052728",
          "buyerAddress": "四川",
          "goodsNum": 5,
          "id": 1,
          "goods_info": [
            {
              "transport_id": 1,
              "id": 1,
              "title": "测试一号商品",
              "num": 1
            },
            {
              "transport_id": 1,
              "id": 1,
              "title": "测试2号商品",
              "num": 1
            },
            {
              "transport_id": 2,
              "id": 1,
              "title": "测试3号商品",
              "num": 2
            },
            {
              "transport_id": 4,
              "id": 4,
              "title": "测试4号商品",
              "num": 4
            }
          ],
          "money": "1.00",
          "state": 1
        },        {
          "orderNum": "132456789465",
          "time": "0000-00-00 00:00:00",
          "buyerShopName": "小陈",
          "buyerPhone": "15694052728",
          "buyerAddress": "四川",
          "goodsNum": 5,
          "id": 1,
          "goods_info": [
            {
              "transport_id": 1,
              "id": 1,
              "title": "测试一号商品",
              "num": 1
            },
            {
              "transport_id": 1,
              "id": 1,
              "title": "测试2号商品",
              "num": 1
            },
            {
              "transport_id": 2,
              "id": 1,
              "title": "测试3号商品",
              "num": 2
            },
            {
              "transport_id": 4,
              "id": 4,
              "title": "测试4号商品",
              "num": 4
            }
          ],
          "money": "1.00",
          "state": 1
        },        {
          "orderNum": "132456789465",
          "time": "0000-00-00 00:00:00",
          "buyerShopName": "小陈",
          "buyerPhone": "15694052728",
          "buyerAddress": "四川",
          "goodsNum": 5,
          "id": 1,
          "goods_info": [
            {
              "transport_id": 1,
              "id": 1,
              "title": "测试一号商品",
              "num": 1
            },
            {
              "transport_id": 1,
              "id": 1,
              "title": "测试2号商品",
              "num": 1
            },
            {
              "transport_id": 2,
              "id": 1,
              "title": "测试3号商品",
              "num": 2
            },
            {
              "transport_id": 4,
              "id": 4,
              "title": "测试4号商品",
              "num": 4
            }
          ],
          "money": "1.00",
          "state": 1
        },        {
          "orderNum": "132456789465",
          "time": "0000-00-00 00:00:00",
          "buyerShopName": "小陈",
          "buyerPhone": "15694052728",
          "buyerAddress": "四川",
          "goodsNum": 5,
          "id": 1,
          "goods_info": [
            {
              "transport_id": 1,
              "id": 1,
              "title": "测试一号商品",
              "num": 1
            },
            {
              "transport_id": 1,
              "id": 1,
              "title": "测试2号商品",
              "num": 1
            },
            {
              "transport_id": 2,
              "id": 1,
              "title": "测试3号商品",
              "num": 2
            },
            {
              "transport_id": 4,
              "id": 4,
              "title": "测试4号商品",
              "num": 4
            }
          ],
          "money": "1.00",
          "state": 1
        },        {
          "orderNum": "132456789465",
          "time": "0000-00-00 00:00:00",
          "buyerShopName": "小陈",
          "buyerPhone": "15694052728",
          "buyerAddress": "四川",
          "goodsNum": 5,
          "id": 1,
          "goods_info": [
            {
              "transport_id": 1,
              "id": 1,
              "title": "测试一号商品",
              "num": 1
            },
            {
              "transport_id": 1,
              "id": 1,
              "title": "测试2号商品",
              "num": 1
            },
            {
              "transport_id": 2,
              "id": 1,
              "title": "测试3号商品",
              "num": 2
            },
            {
              "transport_id": 4,
              "id": 4,
              "title": "测试4号商品",
              "num": 4
            }
          ],
          "money": "1.00",
          "state": 1
        },        {
          "orderNum": "132456789465",
          "time": "0000-00-00 00:00:00",
          "buyerShopName": "小陈",
          "buyerPhone": "15694052728",
          "buyerAddress": "四川",
          "goodsNum": 5,
          "id": 1,
          "goods_info": [
            {
              "transport_id": 1,
              "id": 1,
              "title": "测试一号商品",
              "num": 1
            },
            {
              "transport_id": 1,
              "id": 1,
              "title": "测试2号商品",
              "num": 1
            },
            {
              "transport_id": 2,
              "id": 1,
              "title": "测试3号商品",
              "num": 2
            },
            {
              "transport_id": 4,
              "id": 4,
              "title": "测试4号商品",
              "num": 4
            }
          ],
          "money": "1.00",
          "state": 1
        },        {
          "orderNum": "132456789465",
          "time": "0000-00-00 00:00:00",
          "buyerShopName": "小陈",
          "buyerPhone": "15694052728",
          "buyerAddress": "四川",
          "goodsNum": 5,
          "id": 1,
          "goods_info": [
            {
              "transport_id": 1,
              "id": 1,
              "title": "测试一号商品",
              "num": 1
            },
            {
              "transport_id": 1,
              "id": 1,
              "title": "测试2号商品",
              "num": 1
            },
            {
              "transport_id": 2,
              "id": 1,
              "title": "测试3号商品",
              "num": 2
            },
            {
              "transport_id": 4,
              "id": 4,
              "title": "测试4号商品",
              "num": 4
            }
          ],
          "money": "1.00",
          "state": 1
        },        {
          "orderNum": "132456789465",
          "time": "0000-00-00 00:00:00",
          "buyerShopName": "小陈",
          "buyerPhone": "15694052728",
          "buyerAddress": "四川",
          "goodsNum": 5,
          "id": 1,
          "goods_info": [
            {
              "transport_id": 1,
              "id": 1,
              "title": "测试一号商品",
              "num": 1
            },
            {
              "transport_id": 1,
              "id": 1,
              "title": "测试2号商品",
              "num": 1
            },
            {
              "transport_id": 2,
              "id": 1,
              "title": "测试3号商品",
              "num": 2
            },
            {
              "transport_id": 4,
              "id": 4,
              "title": "测试4号商品",
              "num": 4
            }
          ],
          "money": "1.00",
          "state": 1
        },        {
          "orderNum": "132456789465",
          "time": "0000-00-00 00:00:00",
          "buyerShopName": "小陈",
          "buyerPhone": "15694052728",
          "buyerAddress": "四川",
          "goodsNum": 5,
          "id": 1,
          "goods_info": [
            {
              "transport_id": 1,
              "id": 1,
              "title": "测试一号商品",
              "num": 1
            },
            {
              "transport_id": 1,
              "id": 1,
              "title": "测试2号商品",
              "num": 1
            },
            {
              "transport_id": 2,
              "id": 1,
              "title": "测试3号商品",
              "num": 2
            },
            {
              "transport_id": 4,
              "id": 4,
              "title": "测试4号商品",
              "num": 4
            }
          ],
          "money": "1.00",
          "state": 1
        },        {
          "orderNum": "132456789465",
          "time": "0000-00-00 00:00:00",
          "buyerShopName": "小陈",
          "buyerPhone": "15694052728",
          "buyerAddress": "四川",
          "goodsNum": 5,
          "id": 1,
          "goods_info": [
            {
              "transport_id": 1,
              "id": 1,
              "title": "测试一号商品",
              "num": 1
            },
            {
              "transport_id": 1,
              "id": 1,
              "title": "测试2号商品",
              "num": 1
            },
            {
              "transport_id": 2,
              "id": 1,
              "title": "测试3号商品",
              "num": 2
            },
            {
              "transport_id": 4,
              "id": 4,
              "title": "测试4号商品",
              "num": 4
            }
          ],
          "money": "1.00",
          "state": 1
        }
      ]
    }
  }